{
    "name": "menu",
    "renderer": {
        "render": "renderer",
        "listeners": "listeners",
        "unbindListeners" :"unbindListeners"
    },
    "editor": {
        "language": "javascript"
    },
    "libraries" :[
		"Wmenu.class.js"
    ]
}